[gd_scene load_steps=4 format=2]

[ext_resource path="res://scripts/wave.gd" type="Script" id=1]
[ext_resource path="res://assets/sprites/remake-sprites/circle.png" type="Texture" id=2]

[sub_resource type="CapsuleShape2D" id=3]

custom_solver_bias = 0.0
radius = 50.0
height = 30.0

[node name="wave" type="KinematicBody2D"]

position = Vector2( 0, -533 )
rotation = 1.5708
input_pickable = false
collision_layer = 2
collision_mask = 2
collision/safe_margin = 0.08
script = ExtResource( 1 )
_sections_unfolded = [ "Angular", "Collision", "Linear", "Pickable", "Transform", "collision" ]
speed = 2.5

[node name="wave_shape" type="CollisionShape2D" parent="." index="0"]

shape = SubResource( 3 )
_sections_unfolded = [ "Transform", "Z" ]

[node name="Sprite" type="Sprite" parent="." index="1"]

visible = false
texture = ExtResource( 2 )


